[
  { "ParameterKey": "Environment", "ParameterValue": "common" },
  { "ParameterKey": "Role", "ParameterValue": "box" },
  { "ParameterKey": "Index", "ParameterValue": "02" },
  { "ParameterKey": "Domain", "ParameterValue": "turvo.net" },
  { "ParameterKey": "VpcId", "ParameterValue": "vpc-04370d403103c1227" },
  { "ParameterKey": "OpsAutomate", "ParameterValue": "feature/box/ap-south-1" },
	{ "ParameterKey": "OpsAlerts", "ParameterValue": "arn:aws:sns:ap-south-1:140539094451:OpsAlerts" },
	{ "ParameterKey": "OpsPager", "ParameterValue": "arn:aws:sns:ap-south-1:140539094451:OpsGenie" },
	{ "ParameterKey": "InstanceType", "ParameterValue": "t3a.small" },
	{ "ParameterKey": "VolumeSize", "ParameterValue": "32" },
	{ "ParameterKey": "VolumeType", "ParameterValue": "gp3" }
]
