[
  { "ParameterKey": "VpcId", "ParameterValue": "vpc-31f08854" },
  { "ParameterKey": "SubnetId", "ParameterValue": "subnet-0c238f9ecf9492859" },
  { "ParameterKey": "Environment", "ParameterValue": "smoke" },
  { "ParameterKey": "Name", "ParameterValue": "mongo" },
  { "ParameterKey": "Index", "ParameterValue": "03" },
  { "ParameterKey": "Domain", "ParameterValue": "turvo.net" },
  { "ParameterKey": "OpsAlerts", "ParameterValue": "arn:aws:sns:us-west-2:140539094451:OpsAlerts" },
  { "ParameterKey": "OpsPager", "ParameterValue": "arn:aws:sns:us-west-2:140539094451:OpsGenie" },
  { "ParameterKey": "OpsEncryptionKey", "ParameterValue": "us-west-2-commonkey-20210316" },
  { "ParameterKey": "OpsAutomate", "ParameterValue": "feature/new-env/smoke" },
  { "ParameterKey": "InstanceType", "ParameterValue": "r5a.large" },
  { "ParameterKey": "VolumeSize", "ParameterValue": "300" },
  { "ParameterKey": "VolumeType", "ParameterValue": "gp2" }
]
