[
  { "ParameterKey": "AliasName", "ParameterValue": "alias/common-kms-s3" },
  { "ParameterKey": "BucketName", "ParameterValue": "guardduty" },
  { "ParameterKey": "Environment", "ParameterValue": "base" }
]
