[
	{ "ParameterKey": "Environment", "ParameterValue": "union" },
  { "ParameterKey": "Application", "ParameterValue": "platform" },
	{ "ParameterKey": "Service", "ParameterValue": "scheduler" },
	{ "ParameterKey": "ServicePort", "ParameterValue": "8080" },
	{ "ParameterKey": "Stack", "ParameterValue": "bravo" },
	{ "ParameterKey": "Size", "ParameterValue": "small" },
  { "ParameterKey": "Domain", "ParameterValue": "turvo.net" },
	{ "ParameterKey": "RulePriority", "ParameterValue": "4002" },
  { "ParameterKey": "EncryptionKey", "ParameterValue": "TurvoPracticeKey" },
	{ "ParameterKey": "VpcId", "ParameterValue": "vpc-31f08854" },
  { "ParameterKey": "PublicSubnets", "ParameterValue": "subnet-0fbce1ad6a28346f9,subnet-055374021d15fcb17,subnet-0db3e9627e2570361" },
  { "ParameterKey": "PrivateSubnets", "ParameterValue": "subnet-062684528d74564dd,subnet-0cd75249e988a0132,subnet-0c238f9ecf9492859" },
	{ "ParameterKey": "AutomateVersion", "ParameterValue": "develop" },
	{ "ParameterKey": "SchedulerVersion", "ParameterValue": "develop" }
]
