[
	{ "ParameterKey": "Environment", "ParameterValue": "union" },
	{ "ParameterKey": "Role", "ParameterValue": "graph" },
	{ "ParameterKey": "Index", "ParameterValue": "01" },
	{ "ParameterKey": "Domain", "ParameterValue": "turvo.net" },
	{ "ParameterKey": "VpcId", "ParameterValue": "vpc-31f08854" },
  { "ParameterKey": "SubnetId", "ParameterValue": "subnet-194c057c" },
	{ "ParameterKey": "InstanceType", "ParameterValue": "m5a.large" },
  { "ParameterKey": "VolumeSize", "ParameterValue": "512" },
  { "ParameterKey": "VolumeType", "ParameterValue": "gp2" },
	{ "ParameterKey": "OpsAutomate", "ParameterValue": "feature/arangodb/upgrade-to-3.5.3" },
	{ "ParameterKey": "OpsAlerts", "ParameterValue": "arn:aws:sns:us-west-2:140539094451:OpsAlerts" },
	{ "ParameterKey": "OpsPager", "ParameterValue": "arn:aws:sns:us-west-2:140539094451:OpsGenie" },
	{ "ParameterKey": "OpsEncryptionKey", "ParameterValue": "TurvoPracticeKey" }
]
