[
	{ "ParameterKey": "Environment", "ParameterValue": "union" },
	{ "ParameterKey": "Application", "ParameterValue": "platform" },
	{ "ParameterKey": "Service", "ParameterValue": "gateway" },
	{ "ParameterKey": "Stack", "ParameterValue": "bravo" },
	{ "ParameterKey": "Domain", "ParameterValue": "turvo.com" },
	{ "ParameterKey": "EncryptionKey", "ParameterValue": "TurvoPracticeKey" },
	{ "ParameterKey": "VpcId", "ParameterValue": "vpc-31f08854" },
	{ "ParameterKey": "PublicSubnets", "ParameterValue": "subnet-0fbce1ad6a28346f9,subnet-055374021d15fcb17,subnet-0db3e9627e2570361" },
	{ "ParameterKey": "PrivateSubnets", "ParameterValue": "subnet-062684528d74564dd,subnet-0cd75249e988a0132,subnet-0c238f9ecf9492859" },
	{ "ParameterKey": "AutomateVersion", "ParameterValue": "feature/gatekeeper/new" },
	{ "ParameterKey": "MachinePort", "ParameterValue": "80" },
	{ "ParameterKey": "NotifyByEmail", "ParameterValue": "arn:aws:sns:us-west-2:140539094451:OpsAlerts" },
	{ "ParameterKey": "NotifyByPager", "ParameterValue": "arn:aws:sns:us-west-2:140539094451:OpsGenie" },
	{ "ParameterKey": "Size", "ParameterValue": "small" },
	{ "ParameterKey": "InstanceType", "ParameterValue": "t2.medium" },
	{ "ParameterKey": "MinClusterSize", "ParameterValue": "1" },
	{ "ParameterKey": "IdealClusterSize", "ParameterValue": "1" },
	{ "ParameterKey": "MaxClusterSize", "ParameterValue": "1" },
	{ "ParameterKey": "VolumeSize", "ParameterValue": "32" },
	{ "ParameterKey": "VolumeType", "ParameterValue": "gp2" },
	{ "ParameterKey": "Version", "ParameterValue": "develop" }
]
