[
  { "ParameterKey": "Environment", "ParameterValue": "union" },
  { "ParameterKey": "Application", "ParameterValue": "platform" },
  { "ParameterKey": "Service", "ParameterValue": "sql" },
  { "ParameterKey": "Index", "ParameterValue": "02" },
  { "ParameterKey": "Domain", "ParameterValue": "turvo.net" },
  { "ParameterKey": "OpsAlerts", "ParameterValue": "arn:aws:sns:us-west-2:140539094451:OpsAlerts" },
  { "ParameterKey": "OpsPager", "ParameterValue": "arn:aws:sns:us-west-2:140539094451:OpsGenie" },
  { "ParameterKey": "Master", "ParameterValue": "union-sql" },
  { "ParameterKey": "VolumeType", "ParameterValue": "gp2" },
  { "ParameterKey": "SecurityGroup", "ParameterValue": "sg-caf5bdac" }
]
