[
  { "ParameterKey": "Environment", "ParameterValue": "union" },
  { "ParameterKey": "Application", "ParameterValue": "platform" },
  { "ParameterKey": "Service", "ParameterValue": "cache" },
  { "ParameterKey": "Index", "ParameterValue": "02" },
  { "ParameterKey": "VpcId", "ParameterValue": "vpc-31f08854" },
  { "ParameterKey": "Subnets", "ParameterValue": "subnet-194c057c,subnet-7c147b0b,subnet-871a9bde" },
  { "ParameterKey": "Domain", "ParameterValue": "turvo.net" },
  { "ParameterKey": "OpsAlerts", "ParameterValue": "arn:aws:sns:us-west-2:140539094451:OpsAlerts" },
  { "ParameterKey": "OpsPager", "ParameterValue": "arn:aws:sns:us-west-2:140539094451:OpsGenie" },
  { "ParameterKey": "InstanceType", "ParameterValue": "cache.m5.large" },
  { "ParameterKey": "ClusterSize", "ParameterValue": "2" },
  { "ParameterKey": "ClusterEngine", "ParameterValue": "redis" },
  { "ParameterKey": "EngineVersion", "ParameterValue": "4.0.10" },
  { "ParameterKey": "ClusterParameterGroup", "ParameterValue": "default.redis4.0" },
  { "ParameterKey": "ClusterSeed", "ParameterValue": "rehearsal-cache-01-backup-28-10-21" }
]
