[
	{ "ParameterKey": "Environment", "ParameterValue": "union" },
	{ "ParameterKey": "Application", "ParameterValue": "activity" },
	{ "ParameterKey": "Service", "ParameterValue": "mongo" },
	{ "ParameterKey": "Index", "ParameterValue": "01" },
	{ "ParameterKey": "Domain", "ParameterValue": "turvo.net" },
	{ "ParameterKey": "VpcId", "ParameterValue": "vpc-31f08854" },
  { "ParameterKey": "SubnetId", "ParameterValue": "subnet-194c057c" },
	{ "ParameterKey": "InstanceType", "ParameterValue": "t2.medium" },
  { "ParameterKey": "VolumeSize", "ParameterValue": "128" },
  { "ParameterKey": "VolumeType", "ParameterValue": "gp2" },
	{ "ParameterKey": "OpsFoundation", "ParameterValue": "ami-0c41a55e794c8b705" },
	{ "ParameterKey": "OpsAutomate", "ParameterValue": "develop" },
	{ "ParameterKey": "OpsAlerts", "ParameterValue": "arn:aws:sns:us-west-2:140539094451:OpsAlerts" },
	{ "ParameterKey": "OpsPager", "ParameterValue": "arn:aws:sns:us-west-2:140539094451:OpsGenie" },
	{ "ParameterKey": "OpsEncryptionKey", "ParameterValue": "TurvoPracticeKey" }
]
