[
	{ "ParameterKey": "PublicDomain", "ParameterValue": "turvo.com" },
	{ "ParameterKey": "PrivateDomain", "ParameterValue": "turvo.net" },
	{ "ParameterKey": "OpsFoundation", "ParameterValue": "ami-0c41a55e794c8b705" },
	{ "ParameterKey": "OpsAutomate", "ParameterValue": "develop" },
	{ "ParameterKey": "OpsAlerts", "ParameterValue": "arn:aws:sns:us-west-2:140539094451:OpsAlerts" },
	{ "ParameterKey": "OpsPager", "ParameterValue": "arn:aws:sns:us-west-2:140539094451:OpsGenie" },
	{ "ParameterKey": "EncryptionKey", "ParameterValue": "TurvoPracticeKey" },
	{ "ParameterKey": "Environment", "ParameterValue": "union" },
	{ "ParameterKey": "Stack", "ParameterValue": "foxtrot" },
	{ "ParameterKey": "Size", "ParameterValue": "small" },
	{ "ParameterKey": "CoreVersion", "ParameterValue": "develop" },
	{ "ParameterKey": "HttpVersion", "ParameterValue": "develop" },
	{ "ParameterKey": "BdiVersion", "ParameterValue": "develop" },
	{ "ParameterKey": "EdiVersion", "ParameterValue": "develop" }
]
