[
	{ "ParameterKey": "Environment", "ParameterValue": "union" },
	{ "ParameterKey": "Stack", "ParameterValue": "bravo" },
	{ "ParameterKey": "Size", "ParameterValue": "small" },
	{ "ParameterKey": "EncryptionKey", "ParameterValue": "TurvoPracticeKey" },
	{ "ParameterKey": "VpcId", "ParameterValue": "vpc-31f08854" },
	{ "ParameterKey": "RulePriority", "ParameterValue": "4002" },
  { "ParameterKey": "PublicSubnets", "ParameterValue": "subnet-0fbce1ad6a28346f9,subnet-055374021d15fcb17,subnet-0db3e9627e2570361" },
  { "ParameterKey": "PrivateSubnets", "ParameterValue": "subnet-062684528d74564dd,subnet-0cd75249e988a0132,subnet-0c238f9ecf9492859" },
	{ "ParameterKey": "AutomateVersion", "ParameterValue": "develop" },
	{ "ParameterKey": "AppVersion", "ParameterValue": "develop" },
	{ "ParameterKey": "GuestVersion", "ParameterValue": "develop" },
	{ "ParameterKey": "ApiVersion", "ParameterValue": "cr-10163.1" },
	{ "ParameterKey": "EventVersion", "ParameterValue": "cr-10163.1"},
	{ "ParameterKey": "TrackVersion", "ParameterValue": "cr-10163.1" },
	{ "ParameterKey": "VitalVersion", "ParameterValue": "cr-10163.1" },
	{ "ParameterKey": "WaneVersion", "ParameterValue": "cr-10163.1" },
	{ "ParameterKey": "OrdersVersion", "ParameterValue": "develop" },
	{ "ParameterKey": "ContractsVersion", "ParameterValue": "develop" },
	{ "ParameterKey": "UnityVersion", "ParameterValue": "develop" },
	{ "ParameterKey": "ItemsVersion", "ParameterValue": "develop" },
	{ "ParameterKey": "LobbyVersion", "ParameterValue": "latest" },
	{ "ParameterKey": "PresenceVersion", "ParameterValue": "develop" },
	{ "ParameterKey": "CoreVersion", "ParameterValue": "cr-10163.0" },
	{ "ParameterKey": "HttpVersion", "ParameterValue": "cr-10163.0" },
	{ "ParameterKey": "BdiVersion", "ParameterValue": "cr-10163.0" },
	{ "ParameterKey": "EdiVersion", "ParameterValue": "cr-10163.0" },
	{ "ParameterKey": "NotifyVersion", "ParameterValue": "develop" },
	{ "ParameterKey": "CalendarVersion", "ParameterValue": "develop" },
	{ "ParameterKey": "FunnelVersion", "ParameterValue": "develop" },
	{ "ParameterKey": "KgVersion", "ParameterValue": "develop" },
	{ "ParameterKey": "LineageVersion", "ParameterValue": "cr-10163.0" },
	{ "ParameterKey": "AutopilotVersion", "ParameterValue": "develop" },
	{ "ParameterKey": "AccountsVersion", "ParameterValue": "develop" },
	{ "ParameterKey": "PlannerVersion", "ParameterValue": "develop" },
	{ "ParameterKey": "GoldenVersion", "ParameterValue": "latest" },
	{ "ParameterKey": "MarketplaceVersion", "ParameterValue": "develop" },
	{ "ParameterKey": "TarsVersion", "ParameterValue": "develop" }
]
