[
  { "ParameterKey": "VpcId", "ParameterValue": "vpc-31f08854" },
  { "ParameterKey": "SubnetId", "ParameterValue": "subnet-871a9bde" },
  { "ParameterKey": "Environment", "ParameterValue": "Union" },
  { "ParameterKey": "Role", "ParameterValue": "mongo" },
  { "ParameterKey": "Index", "ParameterValue": "04" },
  { "ParameterKey": "Domain", "ParameterValue": "turvo.net" },
	{ "ParameterKey": "Alerts", "ParameterValue": "arn:aws:sns:us-west-2:140539094451:OpsAlerts" },
	{ "ParameterKey": "Pager", "ParameterValue": "arn:aws:sns:us-west-2:140539094451:OpsGenie" },
	{ "ParameterKey": "EncryptionKey", "ParameterValue": "TurvoPracticeKey" },
  { "ParameterKey": "InstanceType", "ParameterValue": "t2.medium" },
  { "ParameterKey": "VolumeSize", "ParameterValue": "128" },
	{ "ParameterKey": "VolumeType", "ParameterValue": "gp2" }
]
