[
  {"ParameterKey": "Environment","ParameterValue": "union"},
  {"ParameterKey": "Name","ParameterValue": "sql"},
  {"ParameterKey": "Index","ParameterValue": "01"},
  {"ParameterKey": "VpcId","ParameterValue": "vpc-31f08854"},
  {"ParameterKey": "SubnetGroup","ParameterValue": "subnet-062684528d74564dd,subnet-0cd75249e988a0132,subnet-0c238f9ecf9492859"},
  {"ParameterKey": "Domain","ParameterValue": "turvo.net"},
  {"ParameterKey": "OpsAlerts","ParameterValue": "arn:aws:sns:us-west-2:140539094451:OpsAlerts"},
  {"ParameterKey": "OpsPager","ParameterValue": "arn:aws:sns:us-west-2:140539094451:OpsGenie"},
  {"ParameterKey": "MonitoringRoleArn","ParameterValue": "arn:aws:iam::140539094451:role/rds-monitoring-role"},
  {"ParameterKey": "MasterARN","ParameterValue": "arn:aws:rds:us-west-2:140539094451:db:union-sql"},
  {"ParameterKey": "EnableHA","ParameterValue": "no"},
  {"ParameterKey": "VolumeSize","ParameterValue": "100"},
  {"ParameterKey": "MaximumStorage", "ParameterValue": "300"},
  {"ParameterKey": "DaysToKeepBackups","ParameterValue": "7"}
]
