[
	{ "ParameterKey": "Environment", "ParameterValue": "union" },
  { "ParameterKey": "Application", "ParameterValue": "connect" },
	{ "ParameterKey": "Service", "ParameterValue": "sqs" },
	{ "ParameterKey": "QueueName", "ParameterValue": "rpm.fifo" },
	{ "ParameterKey": "QueueType", "ParameterValue": "fifo" },
	{ "ParameterKey": "MessageSize", "ParameterValue": "262144" },
	{ "ParameterKey": "MessageRetention", "ParameterValue": "432000" },
	{ "ParameterKey": "MessageDeduplication", "ParameterValue": "true" },
	{ "ParameterKey": "OpsAlerts", "ParameterValue": "arn:aws:sns:us-west-2:140539094451:OpsAlerts" },
	{ "ParameterKey": "OpsPager", "ParameterValue": "arn:aws:sns:us-west-2:140539094451:OpsGenie" }
]
