[
	{ "ParameterKey": "Environment", "ParameterValue": "production" },
	{ "ParameterKey": "Role", "ParameterValue": "graph" },
	{ "ParameterKey": "Index", "ParameterValue": "03" },
	{ "ParameterKey": "Domain", "ParameterValue": "turvo.net" },
	{ "ParameterKey": "VpcId", "ParameterValue": "vpc-31f08854" },
  { "ParameterKey": "SubnetId", "ParameterValue": "subnet-0c238f9ecf9492859" },
	{ "ParameterKey": "InstanceType", "ParameterValue": "m5.xlarge" },
  { "ParameterKey": "VolumeSize", "ParameterValue": "512" },
  { "ParameterKey": "VolumeType", "ParameterValue": "gp2" },
	{ "ParameterKey": "OpsFoundation", "ParameterValue": "ami-0c41a55e794c8b705" },
	{ "ParameterKey": "OpsAutomate", "ParameterValue": "release/2019-10-28" },
	{ "ParameterKey": "OpsAlerts", "ParameterValue": "arn:aws:sns:us-west-2:140539094451:OpsAlerts" },
	{ "ParameterKey": "OpsPager", "ParameterValue": "arn:aws:sns:us-west-2:140539094451:OpsGenie" },
	{ "ParameterKey": "OpsEncryptionKey", "ParameterValue": "TurvoProductionKey" }
]
