[
	{ "ParameterKey": "Environment", "ParameterValue": "production" },
	{ "ParameterKey": "Application", "ParameterValue": "platform" },
	{ "ParameterKey": "Service", "ParameterValue": "stalk" },
	{ "ParameterKey": "Stack", "ParameterValue": "bravo" },
	{ "ParameterKey": "Domain", "ParameterValue": "turvo.net" },
	{ "ParameterKey": "EncryptionKey", "ParameterValue": "TurvoProductionKey" },
	{ "ParameterKey": "VpcId", "ParameterValue": "vpc-31f08854" },
	{ "ParameterKey": "PublicSubnets", "ParameterValue": "subnet-1e4c057b,subnet-7b147b0c,subnet-841a9bdd" },
	{ "ParameterKey": "PrivateSubnets", "ParameterValue": "subnet-194c057c,subnet-7c147b0b,subnet-871a9bde" },
	{ "ParameterKey": "AutomateVersion", "ParameterValue": "master" },
	{ "ParameterKey": "MachinePort", "ParameterValue": "8080" },
	{ "ParameterKey": "MachineImage", "ParameterValue": "ami-0c41a55e794c8b705" },
	{ "ParameterKey": "NotifyByEmail", "ParameterValue": "arn:aws:sns:us-west-2:140539094451:OpsAlerts" },
	{ "ParameterKey": "NotifyByPager", "ParameterValue": "arn:aws:sns:us-west-2:140539094451:OpsGenie" },
	{ "ParameterKey": "Size", "ParameterValue": "large" },
	{ "ParameterKey": "InstanceType", "ParameterValue": "t2.medium" },
	{ "ParameterKey": "MinClusterSize", "ParameterValue": "1" },
	{ "ParameterKey": "IdealClusterSize", "ParameterValue": "1" },
	{ "ParameterKey": "MaxClusterSize", "ParameterValue": "1" },
	{ "ParameterKey": "VolumeSize", "ParameterValue": "32" },
	{ "ParameterKey": "VolumeType", "ParameterValue": "gp2" },
	{ "ParameterKey": "Version", "ParameterValue": "develop" }
]
