[
	{ "ParameterKey": "Environment", "ParameterValue": "production" },
	{ "ParameterKey": "Stack", "ParameterValue": "delta" },
	{ "ParameterKey": "Size", "ParameterValue": "large" },
	{ "ParameterKey": "EncryptionKey", "ParameterValue": "TurvoProductionKey" },
	{ "ParameterKey": "VpcId", "ParameterValue": "vpc-31f08854" },
	{ "ParameterKey": "RulePriority", "ParameterValue": "1004" },
  { "ParameterKey": "PublicSubnets", "ParameterValue": "subnet-1e4c057b,subnet-7b147b0c,subnet-841a9bdd" },
  { "ParameterKey": "PrivateSubnets", "ParameterValue": "subnet-194c057c,subnet-7c147b0b,subnet-871a9bde" },
	{ "ParameterKey": "AutomateVersion", "ParameterValue": "release/2021-07-02" },
	{ "ParameterKey": "AppVersion", "ParameterValue": "3.31.5" },
	{ "ParameterKey": "ApiVersion", "ParameterValue": "2021.07.12.0" },
	{ "ParameterKey": "EventVersion", "ParameterValue": "2021.07.12.0" },
	{ "ParameterKey": "TrackVersion", "ParameterValue": "2021.07.12.0" },
	{ "ParameterKey": "VitalVersion", "ParameterValue": "2021.07.12.0" },
	{ "ParameterKey": "WaneVersion", "ParameterValue": "2021.07.12.0" },
	{ "ParameterKey": "OrdersVersion", "ParameterValue": "2021.07.08.0" },
	{ "ParameterKey": "ContractsVersion", "ParameterValue": "2021.07.08.0" },
	{ "ParameterKey": "UnityVersion", "ParameterValue": "2021.07.08.0" },
	{ "ParameterKey": "ItemsVersion", "ParameterValue": "2021.07.08.1" },
	{ "ParameterKey": "CalendarVersion", "ParameterValue": "2021.07.08.0" },
	{ "ParameterKey": "GuestVersion", "ParameterValue": "1.39.0" },
	{ "ParameterKey": "LobbyVersion", "ParameterValue": "4.3.1" },
	{ "ParameterKey": "PresenceVersion", "ParameterValue": "2021.07.08.0" },
	{ "ParameterKey": "CoreVersion", "ParameterValue": "2021.07.08.0" },
	{ "ParameterKey": "HttpVersion", "ParameterValue": "2021.07.08.0" },
	{ "ParameterKey": "BdiVersion", "ParameterValue": "2021.07.08.0" },
	{ "ParameterKey": "EdiVersion", "ParameterValue": "2021.07.08.0" },
	{ "ParameterKey": "LineageVersion", "ParameterValue": "2021.07.08.0" },
	{ "ParameterKey": "NotifyVersion", "ParameterValue": "2021.07.08.0" },
	{ "ParameterKey": "KgVersion", "ParameterValue": "2021.07.08.0" },
	{ "ParameterKey": "AutopilotVersion", "ParameterValue": "2021.07.08.0" },
	{ "ParameterKey": "GoldenVersion", "ParameterValue": "2021.05.20.0" },
	{ "ParameterKey": "AccountsVersion", "ParameterValue": "2021.07.08.0" },
	{ "ParameterKey": "PlannerVersion", "ParameterValue": "2021.07.08.0" },
	{ "ParameterKey": "FunnelVersion", "ParameterValue": "1.7.0" }
]
