[
	{ "ParameterKey": "Environment", "ParameterValue": "production" },
  { "ParameterKey": "Application", "ParameterValue": "platform" },
	{ "ParameterKey": "Service", "ParameterValue": "config" },
	{ "ParameterKey": "ServicePort", "ParameterValue": "8080" },
	{ "ParameterKey": "Stack", "ParameterValue": "bravo" },
	{ "ParameterKey": "Size", "ParameterValue": "large" },
  { "ParameterKey": "Domain", "ParameterValue": "turvo.net" },
	{ "ParameterKey": "RulePriority", "ParameterValue": "1002" },
  { "ParameterKey": "EncryptionKey", "ParameterValue": "TurvoProductionKey" },
	{ "ParameterKey": "VpcId", "ParameterValue": "vpc-31f08854" },
  { "ParameterKey": "PublicSubnets", "ParameterValue": "subnet-1e4c057b,subnet-7b147b0c,subnet-841a9bdd" },
  { "ParameterKey": "PrivateSubnets", "ParameterValue": "subnet-194c057c,subnet-7c147b0b,subnet-871a9bde" },
	{ "ParameterKey": "AutomateVersion", "ParameterValue": "release/2022-01-14" },
	{ "ParameterKey": "ConfigVersion", "ParameterValue": "hotfix-2022.02.28.0" }
]
