[
  { "ParameterKey": "Index", "ParameterValue": "01" },
  { "ParameterKey": "DNSDomain", "ParameterValue": "turvo.net" },
  { "ParameterKey": "DomainName", "ParameterValue": "search" },
  { "ParameterKey": "ElasticsearchVersion", "ParameterValue": "7.7" },
  { "ParameterKey": "Environment", "ParameterValue": "production" },
  { "ParameterKey": "VolumeSize", "ParameterValue": "725" },
  { "ParameterKey": "VolumeType", "ParameterValue": "gp2" },
  { "ParameterKey": "DedicatedMasterCount", "ParameterValue": "3" },
  { "ParameterKey": "DedicatedMasterType", "ParameterValue": "c5.large.elasticsearch" },
  { "ParameterKey": "InstanceCount", "ParameterValue": "5" },
  { "ParameterKey": "InstanceType", "ParameterValue": "m5.xlarge.elasticsearch" },
  { "ParameterKey": "AvailabilityZoneCount", "ParameterValue": "3" },
  { "ParameterKey": "VpcId", "ParameterValue": "vpc-31f08854" },
  { "ParameterKey": "SubnetIds", "ParameterValue": "subnet-871a9bde,subnet-194c057c,subnet-7c147b0b" },
  { "ParameterKey": "NodeToNodeEncryptionEnable", "ParameterValue": "yes" },
  { "ParameterKey": "CloudWatchLogsTTL", "ParameterValue": "90" },
  { "ParameterKey": "RestEncryptionKMSKey", "ParameterValue": "05630d18-166e-4012-8d32-50c73494dfdf" },
  { "ParameterKey": "OpsAlerts", "ParameterValue": "arn:aws:sns:us-west-2:140539094451:OpsAlerts" },
	{ "ParameterKey": "OpsPager", "ParameterValue": "arn:aws:sns:us-west-2:140539094451:OpsGenie" }
]
