[
  { "ParameterKey": "VpcId", "ParameterValue": "vpc-31f08854" },
  { "ParameterKey": "SubnetId", "ParameterValue": "subnet-871a9bde" },
  { "ParameterKey": "Environment", "ParameterValue": "Production" },
  { "ParameterKey": "Role", "ParameterValue": "mongo" },
  { "ParameterKey": "Index", "ParameterValue": "03" },
  { "ParameterKey": "Domain", "ParameterValue": "turvo.net" },
  { "ParameterKey": "Alerts", "ParameterValue": "arn:aws:sns:us-west-2:140539094451:OpsAlerts" },
  { "ParameterKey": "Pager", "ParameterValue": "arn:aws:sns:us-west-2:140539094451:OpsGenie" },
  { "ParameterKey": "EncryptionKey", "ParameterValue": "TurvoProductionKey" },
  { "ParameterKey": "InstanceType", "ParameterValue": "m5.4xlarge" },
  { "ParameterKey": "VolumeSize", "ParameterValue": "1024" },
  { "ParameterKey": "VolumeType", "ParameterValue": "gp2" }
]
