[
	{ "ParameterKey": "PublicDomain", "ParameterValue": "turvo.com" },
	{ "ParameterKey": "PrivateDomain", "ParameterValue": "turvo.net" },
	{ "ParameterKey": "OpsFoundation", "ParameterValue": "ami-0c41a55e794c8b705" },
	{ "ParameterKey": "OpsAutomate", "ParameterValue": "master" },
	{ "ParameterKey": "OpsAlerts", "ParameterValue": "arn:aws:sns:us-west-2:140539094451:OpsAlerts" },
	{ "ParameterKey": "OpsPager", "ParameterValue": "arn:aws:sns:us-west-2:140539094451:OpsGenie" },
	{ "ParameterKey": "EncryptionKey", "ParameterValue": "TurvoProductionKey" },
	{ "ParameterKey": "Environment", "ParameterValue": "production" },
	{ "ParameterKey": "Stack", "ParameterValue": "delta" },
	{ "ParameterKey": "Size", "ParameterValue": "medium" },
	{ "ParameterKey": "CoreVersion", "ParameterValue": "2018.12.19.1" },
	{ "ParameterKey": "HttpVersion", "ParameterValue": "2018.12.19.0" },
	{ "ParameterKey": "BdiVersion", "ParameterValue": "2018.11.08.0" },
	{ "ParameterKey": "EdiVersion", "ParameterValue": "2018.10.04.1" }
]
