[
  { "ParameterKey": "VpcId", "ParameterValue": "vpc-31f08854" },
  { "ParameterKey": "PublicSubnets", "ParameterValue": "subnet-1e4c057b,subnet-7b147b0c,subnet-841a9bdd" },
  { "ParameterKey": "PrivateSubnets", "ParameterValue": "subnet-194c057c,subnet-7c147b0b,subnet-871a9bde" },
	{ "ParameterKey": "Domain", "ParameterValue": "turvo.com" },
	{ "ParameterKey": "OpsFoundation", "ParameterValue": "ami-0c41a55e794c8b705" },
	{ "ParameterKey": "OpsAlerts", "ParameterValue": "arn:aws:sns:us-west-2:140539094451:OpsAlerts" },
	{ "ParameterKey": "OpsPager", "ParameterValue": "arn:aws:sns:us-west-2:140539094451:OpsGenie" },
  { "ParameterKey": "Environment", "ParameterValue": "production" },
  { "ParameterKey": "Application", "ParameterValue": "track" },
	{ "ParameterKey": "Service", "ParameterValue": "central" },
  { "ParameterKey": "Stack", "ParameterValue": "bravo" },
	{ "ParameterKey": "OpsAutomate", "ParameterValue": "master" },
	{ "ParameterKey": "OpsEncryptionKey", "ParameterValue": "TurvoProductionKey" },
  { "ParameterKey": "InstanceType", "ParameterValue": "t3.xlarge" },
  { "ParameterKey": "VolumeSize", "ParameterValue": "256" },
  { "ParameterKey": "VolumeType", "ParameterValue": "gp2" },
  { "ParameterKey": "MinClusterSize", "ParameterValue": "1" },
  { "ParameterKey": "IdealClusterSize", "ParameterValue": "1" },
  { "ParameterKey": "MaxClusterSize", "ParameterValue": "3" },
  { "ParameterKey": "Version", "ParameterValue": "2019.02.27.3" }
]
