[
	{ "ParameterKey": "Environment", "ParameterValue": "production" },
	{ "ParameterKey": "Application", "ParameterValue": "analytics" },
	{ "ParameterKey": "Service", "ParameterValue": "zengistics" },
	{ "ParameterKey": "Domain", "ParameterValue": "turvo.com" },
	{ "ParameterKey": "VpcId", "ParameterValue": "vpc-31f08854" },
	{ "ParameterKey": "Subnets", "ParameterValue": "subnet-1e4c057b,subnet-7b147b0c,subnet-841a9bdd" },
	{ "ParameterKey": "ClusterType", "ParameterValue": "single-node" },
	{ "ParameterKey": "ClusterSize", "ParameterValue": "1" },
	{ "ParameterKey": "InstanceType", "ParameterValue": "dc2.large" },
	{ "ParameterKey": "Database", "ParameterValue": "turvo" },
	{ "ParameterKey": "Username", "ParameterValue": "root" },
	{ "ParameterKey": "Password", "ParameterValue": "TurvoPleasel3tm31n" },
	{ "ParameterKey": "OpsAlerts", "ParameterValue": "arn:aws:sns:us-west-2:140539094451:OpsAlerts" },
	{ "ParameterKey": "OpsPager", "ParameterValue": "arn:aws:sns:us-west-2:140539094451:OpsGenie" }
]
