[
 {"ParameterKey": "Environment", "ParameterValue": "production" },
 { "ParameterKey": "Application", "ParameterValue": "analytics" },
 { "ParameterKey": "Service", "ParameterValue": "tableau" },
 { "ParameterKey": "Index", "ParameterValue": "01" },
 { "ParameterKey": "Domain", "ParameterValue": "turvo.net" },
 { "ParameterKey": "VpcId", "ParameterValue": "vpc-31f08854" },
 { "ParameterKey": "SubnetId", "ParameterValue": "subnet-7c147b0b" },
 { "ParameterKey": "OpsAutomate", "ParameterValue": "feature/tableau/tableau-role-update" },
 { "ParameterKey": "OpsAlerts", "ParameterValue": "arn:aws:sns:us-west-2:140539094451:OpsAlerts" },
 { "ParameterKey": "OpsPager", "ParameterValue": "arn:aws:sns:us-west-2:140539094451:OpsGenie" },
 { "ParameterKey": "OpsEncryptionKey", "ParameterValue": "TurvoProductionKey" },
 { "ParameterKey": "InstanceType", "ParameterValue": "m5.4xlarge" },
 { "ParameterKey": "VolumeSize", "ParameterValue": "256" },
 { "ParameterKey": "VolumeType", "ParameterValue": "gp2" }
]
