[
  { "ParameterKey": "Environment", "ParameterValue": "production" },
  { "ParameterKey": "Application", "ParameterValue": "track" },
	{ "ParameterKey": "Service", "ParameterValue": "queue" },
  { "ParameterKey": "Index", "ParameterValue": "01" },
  { "ParameterKey": "VpcId", "ParameterValue": "vpc-31f08854" },
  { "ParameterKey": "Subnets", "ParameterValue": "subnet-194c057c,subnet-7c147b0b,subnet-871a9bde" },
	{ "ParameterKey": "Domain", "ParameterValue": "turvo.net" },
	{ "ParameterKey": "OpsFoundation", "ParameterValue": "ami-0c41a55e794c8b705" },
	{ "ParameterKey": "OpsAlerts", "ParameterValue": "arn:aws:sns:us-west-2:140539094451:OpsAlerts" },
	{ "ParameterKey": "OpsPager", "ParameterValue": "arn:aws:sns:us-west-2:140539094451:OpsGenie" },
	{ "ParameterKey": "OpsAutomate", "ParameterValue": "release/2022-01-20" },
	{ "ParameterKey": "OpsEncryptionKey", "ParameterValue": "TurvoProductionKey" },
  { "ParameterKey": "InstanceType", "ParameterValue": "m5.xlarge" },
  { "ParameterKey": "MinClusterSize", "ParameterValue": "3" },
  { "ParameterKey": "IdealClusterSize", "ParameterValue": "3" },
  { "ParameterKey": "MaxClusterSize", "ParameterValue": "3" },
  { "ParameterKey": "VolumeSize", "ParameterValue": "128" },
  { "ParameterKey": "VolumeType", "ParameterValue": "gp2" },
  { "ParameterKey": "Version", "ParameterValue": "0.0.1" }
]
