[
  { "ParameterKey": "Environment", "ParameterValue": "production" },
  { "ParameterKey": "Application", "ParameterValue": "platform" },
	{ "ParameterKey": "Service", "ParameterValue": "elastic" },
  { "ParameterKey": "Index", "ParameterValue": "04" },
  { "ParameterKey": "VpcId", "ParameterValue": "vpc-31f08854" },
  { "ParameterKey": "Subnets", "ParameterValue": "subnet-194c057c,subnet-7c147b0b,subnet-871a9bde" },
	{ "ParameterKey": "Domain", "ParameterValue": "turvo.net" },
	{ "ParameterKey": "OpsAlerts", "ParameterValue": "arn:aws:sns:us-west-2:140539094451:OpsAlerts" },
	{ "ParameterKey": "OpsPager", "ParameterValue": "arn:aws:sns:us-west-2:140539094451:OpsGenie" },
	{ "ParameterKey": "OpsAutomate", "ParameterValue": "feature/elastic/lock-ES-6.3" },
	{ "ParameterKey": "OpsEncryptionKey", "ParameterValue": "TurvoProductionKey" },
  { "ParameterKey": "InstanceType", "ParameterValue": "m5.xlarge" },
  { "ParameterKey": "MinClusterSize", "ParameterValue": "2" },
  { "ParameterKey": "IdealClusterSize", "ParameterValue": "2" },
  { "ParameterKey": "MaxClusterSize", "ParameterValue": "2" },
  { "ParameterKey": "VolumeSize", "ParameterValue": "1024" },
  { "ParameterKey": "VolumeType", "ParameterValue": "gp2" },
  { "ParameterKey": "Version", "ParameterValue": "0.0.1" }
]
