[
	{ "ParameterKey": "Service", "ParameterValue": "http" },
	{ "ParameterKey": "LbEnvironment", "ParameterValue": "production" },
  { "ParameterKey": "Domain", "ParameterValue": "turvo.com" },
  { "ParameterKey": "VpcId", "ParameterValue": "vpc-31f08854" },
	{ "ParameterKey": "PublicSubnets", "ParameterValue": "subnet-1e4c057b,subnet-7b147b0c,subnet-841a9bdd" },
	{ "ParameterKey": "PrivateSubnets", "ParameterValue": "subnet-194c057c,subnet-7c147b0b,subnet-871a9bde" },
  {"ParameterKey": "SslCertificate", "ParameterValue": "arn:aws:acm:us-west-2:140539094451:certificate/7922aab6-adb2-4965-9517-4744485c21b9"}
]
