[
  {"ParameterKey": "Environment","ParameterValue": "rehearsal"},
  {"ParameterKey": "Name","ParameterValue": "sql"},
  {"ParameterKey": "Index","ParameterValue": "02"},
  {"ParameterKey": "Domain","ParameterValue": "turvo.net"},
  {"ParameterKey": "OpsAlerts","ParameterValue": "arn:aws:sns:us-west-2:140539094451:OpsAlerts"},
  {"ParameterKey": "OpsPager","ParameterValue": "arn:aws:sns:us-west-2:140539094451:OpsGenie"},
  {"ParameterKey": "Master","ParameterValue": "rehearsal-sql-02"},
  {"ParameterKey": "MonitoringRoleArn","ParameterValue": "arn:aws:iam::140539094451:role/rds-monitoring-role"},
  {"ParameterKey": "DaysToKeepBackups","ParameterValue": "0"},
  {"ParameterKey": "ReplicaIndex","ParameterValue": "01"},
  {"ParameterKey": "MaximumStorage", "ParameterValue": "300"}
]
