[
  {"ParameterKey": "Environment","ParameterValue": "rehearsal"},
  {"ParameterKey": "Name","ParameterValue": "sql"},
  {"ParameterKey": "Index","ParameterValue": "02"},
  {"ParameterKey": "VpcId","ParameterValue": "vpc-31f08854"},
  {"ParameterKey": "SubnetGroup","ParameterValue": "subnet-062684528d74564dd,subnet-0cd75249e988a0132,subnet-0c238f9ecf9492859"},
  {"ParameterKey": "Domain","ParameterValue": "turvo.net"},
  {"ParameterKey": "OpsAlerts","ParameterValue": "arn:aws:sns:us-west-2:140539094451:OpsAlerts"},
  {"ParameterKey": "OpsPager","ParameterValue": "arn:aws:sns:us-west-2:140539094451:OpsGenie"},
  {"ParameterKey": "MonitoringRoleArn","ParameterValue": "arn:aws:iam::140539094451:role/rds-monitoring-role"},
  {"ParameterKey": "EnableHA","ParameterValue": "no"},
  {"ParameterKey": "InstanceType","ParameterValue": "db.t3.large"},
  {"ParameterKey": "DaysToKeepBackups","ParameterValue": "7"},
  {"ParameterKey": "MaximumStorage", "ParameterValue": "300"},
  {"ParameterKey": "SnapshotId", "ParameterValue": "rds:rehearsal-sql-01-2021-02-15-06-28"}
]
