[
  { "ParameterKey": "Environment", "ParameterValue": "rehearsal" },
  { "ParameterKey": "Application", "ParameterValue": "pay" },
  { "ParameterKey": "Service", "ParameterValue": "nacha" },
  { "ParameterKey": "Stack", "ParameterValue": "charlie" },
  { "ParameterKey": "Domain", "ParameterValue": "turvo.net" },
  { "ParameterKey": "VpcId", "ParameterValue": "vpc-31f08854" },
  { "ParameterKey": "SubnetId", "ParameterValue": "subnet-7c147b0b" },
  { "ParameterKey": "OpsFoundation", "ParameterValue": "ami-0c41a55e794c8b705" },
  { "ParameterKey": "OpsAutomate", "ParameterValue": "develop" },
  { "ParameterKey": "OpsAlerts", "ParameterValue": "arn:aws:sns:us-west-2:140539094451:OpsAlerts" },
  { "ParameterKey": "OpsPager", "ParameterValue": "arn:aws:sns:us-west-2:140539094451:OpsGenie" },
  { "ParameterKey": "OpsEncryptionKey", "ParameterValue": "TurvoPracticeKey" },
  { "ParameterKey": "InstanceType", "ParameterValue": "t2.small" },
  { "ParameterKey": "VolumeSize", "ParameterValue": "32" },
  { "ParameterKey": "VolumeType", "ParameterValue": "gp2" },
  { "ParameterKey": "Version", "ParameterValue": "2.2.1" }
]
