[
	{ "ParameterKey": "Environment", "ParameterValue": "rehearsal" },
	{ "ParameterKey": "Stack", "ParameterValue": "alpha" },
	{ "ParameterKey": "Size", "ParameterValue": "small" },
	{ "ParameterKey": "EncryptionKey", "ParameterValue": "TurvoPracticeKey" },
	{ "ParameterKey": "VpcId", "ParameterValue": "vpc-31f08854" },
	{ "ParameterKey": "RulePriority", "ParameterValue": "3001" },
  { "ParameterKey": "PublicSubnets", "ParameterValue": "subnet-0fbce1ad6a28346f9,subnet-055374021d15fcb17,subnet-0db3e9627e2570361" },
  { "ParameterKey": "PrivateSubnets", "ParameterValue": "subnet-062684528d74564dd,subnet-0cd75249e988a0132,subnet-0c238f9ecf9492859" },
	{ "ParameterKey": "AutomateVersion", "ParameterValue": "release/2022-01-14" },
	{ "ParameterKey": "AppVersion", "ParameterValue": "r6-2022.01.13.20" },
	{ "ParameterKey": "ApiVersion", "ParameterValue": "hotfix-2022.02.28.0" },
	{ "ParameterKey": "EventVersion", "ParameterValue": "hotfix-2022.02.28.0" },
	{ "ParameterKey": "TrackVersion", "ParameterValue": "hotfix-2022.02.28.0" },
	{ "ParameterKey": "VitalVersion", "ParameterValue": "hotfix-2022.02.28.0" },
	{ "ParameterKey": "WaneVersion", "ParameterValue": "hotfix-2022.02.28.0" },
	{ "ParameterKey": "OrdersVersion", "ParameterValue": "hotfix-2022.02.28.0" },
	{ "ParameterKey": "ContractsVersion", "ParameterValue": "hotfix-2022.02.28.0" },
	{ "ParameterKey": "UnityVersion", "ParameterValue": "hotfix-2022.02.28.0" },
	{ "ParameterKey": "ItemsVersion", "ParameterValue": "hotfix-2022.02.28.0" },
	{ "ParameterKey": "CalendarVersion", "ParameterValue": "hotfix-2022.02.28.0" },
	{ "ParameterKey": "GuestVersion", "ParameterValue": "r6-2022.01.13.5" },
	{ "ParameterKey": "LobbyVersion", "ParameterValue": "r6-2022.01.13.1" },
	{ "ParameterKey": "PresenceVersion", "ParameterValue": "hotfix-2022.02.28.0" },
	{ "ParameterKey": "CoreVersion", "ParameterValue": "hotfix-2022.02.28.0" },
	{ "ParameterKey": "HttpVersion", "ParameterValue": "hotfix-2022.02.28.0" },
	{ "ParameterKey": "BdiVersion", "ParameterValue": "hotfix-2022.02.28.1" },
	{ "ParameterKey": "EdiVersion", "ParameterValue": "hotfix-2022.02.28.2" },
	{ "ParameterKey": "LineageVersion", "ParameterValue": "hotfix-2022.02.28.1" },
	{ "ParameterKey": "NotifyVersion", "ParameterValue": "hotfix-2022.02.28.0" },
	{ "ParameterKey": "KgVersion", "ParameterValue": "hotfix-2022.02.28.0" },
	{ "ParameterKey": "AutopilotVersion", "ParameterValue": "hotfix-2022.02.28.0" },
	{ "ParameterKey": "GoldenVersion", "ParameterValue": "hotfix-2022.02.28.0" },
	{ "ParameterKey": "AccountsVersion", "ParameterValue": "hotfix-2022.02.28.0" },
	{ "ParameterKey": "PlannerVersion", "ParameterValue": "hotfix-2022.02.28.0" },
	{ "ParameterKey": "MarketplaceVersion", "ParameterValue": "hotfix-2022.02.28.0" },
	{ "ParameterKey": "FunnelVersion", "ParameterValue": "1.7.0" },
	{ "ParameterKey": "TarsVersion", "ParameterValue": "hotfix-2022.02.28.0" }
]
