[
  { "ParameterKey": "Index", "ParameterValue": "01" },
  { "ParameterKey": "DNSDomain", "ParameterValue": "turvo.net" },
  { "ParameterKey": "DomainName", "ParameterValue": "search" },
  { "ParameterKey": "ElasticsearchVersion", "ParameterValue": "7.7" },
  { "ParameterKey": "Environment", "ParameterValue": "stage" },
  { "ParameterKey": "VolumeSize", "ParameterValue": "500" },
  { "ParameterKey": "VolumeType", "ParameterValue": "gp2" },
  { "ParameterKey": "DedicatedMasterCount", "ParameterValue": "0" },
  { "ParameterKey": "DedicatedMasterType", "ParameterValue": "c5.large.elasticsearch" },
  { "ParameterKey": "InstanceCount", "ParameterValue": "2" },
  { "ParameterKey": "InstanceType", "ParameterValue": "r5.large.elasticsearch" },
  { "ParameterKey": "AvailabilityZoneCount", "ParameterValue": "2" },
  { "ParameterKey": "VpcId", "ParameterValue": "vpc-31f08854" },
  { "ParameterKey": "SubnetIds", "ParameterValue": "subnet-062684528d74564dd,subnet-0cd75249e988a0132" },
  { "ParameterKey": "NodeToNodeEncryptionEnable", "ParameterValue": "yes" },
  { "ParameterKey": "CloudWatchLogsTTL", "ParameterValue": "90" },
  { "ParameterKey": "RestEncryptionKMSKey", "ParameterValue": "05630d18-166e-4012-8d32-50c73494dfdf" },
  { "ParameterKey": "OpsAlerts", "ParameterValue": "arn:aws:sns:us-west-2:140539094451:OpsAlerts" },
	{ "ParameterKey": "OpsPager", "ParameterValue": "arn:aws:sns:us-west-2:140539094451:OpsGenie" }
]
