[
	{ "ParameterKey": "Environment", "ParameterValue": "stage" },
	{ "ParameterKey": "Stack", "ParameterValue": "alpha" },
	{ "ParameterKey": "Size", "ParameterValue": "medium" },
	{ "ParameterKey": "EncryptionKey", "ParameterValue": "TurvoPracticeKey" },
	{ "ParameterKey": "VpcId", "ParameterValue": "vpc-31f08854" },
	{ "ParameterKey": "RulePriority", "ParameterValue": "2001" },
	{ "ParameterKey": "PublicSubnets", "ParameterValue": "subnet-0fbce1ad6a28346f9,subnet-055374021d15fcb17,subnet-0db3e9627e2570361" },
	{ "ParameterKey": "PrivateSubnets", "ParameterValue": "subnet-062684528d74564dd,subnet-0cd75249e988a0132,subnet-0c238f9ecf9492859" },
	{ "ParameterKey": "AutomateVersion", "ParameterValue": "feature/java/pinpoint-agent" },
	{ "ParameterKey": "AppVersion", "ParameterValue": "2.113.2" },
	{ "ParameterKey": "ApiVersion", "ParameterValue": "CR4265.3.24.1" },
	{ "ParameterKey": "EventVersion", "ParameterValue": "CR4265.3.24.1" },
	{ "ParameterKey": "TrackVersion", "ParameterValue": "CR4265.3.24.1" },
	{ "ParameterKey": "VitalVersion", "ParameterValue": "CR4265.3.24.1" },
	{ "ParameterKey": "OrdersVersion", "ParameterValue": "2019.05.08.2" },
	{ "ParameterKey": "ContractsVersion", "ParameterValue": "2019.05.08.0" },
	{ "ParameterKey": "UnityVersion", "ParameterValue": "2019.05.08.2" },
	{ "ParameterKey": "ItemsVersion", "ParameterValue": "2019.05.08.2" },
	{ "ParameterKey": "LobbyVersion", "ParameterValue": "2.0.0" },
	{ "ParameterKey": "PresenceVersion", "ParameterValue": "2019.03.20.0" },
	{ "ParameterKey": "CoreVersion", "ParameterValue": "CR4265.3.24.1" },
	{ "ParameterKey": "HttpVersion", "ParameterValue": "2019.05.08.0" },
	{ "ParameterKey": "BdiVersion", "ParameterValue": "2019.04.17.0" },
	{ "ParameterKey": "EdiVersion", "ParameterValue": "2019.05.08.2" },
	{ "ParameterKey": "NotifyVersion", "ParameterValue": "2019.02.20.0" }
]
