[
  { "ParameterKey": "Application", "ParameterValue": "track" },
  { "ParameterKey": "AutomateVersion", "ParameterValue": "master" },
  { "ParameterKey": "Domain", "ParameterValue": "turvo.com" },
  { "ParameterKey": "EncryptionKey", "ParameterValue": "TurvoPracticeKey" },
  { "ParameterKey": "Environment", "ParameterValue": "stage" },
  { "ParameterKey": "NotifyByEmail", "ParameterValue": "arn:aws:sns:us-west-2:140539094451:OpsAlerts" },
  { "ParameterKey": "NotifyByPager", "ParameterValue": "arn:aws:sns:us-west-2:140539094451:OpsGenie" },
  { "ParameterKey": "PublicSubnets", "ParameterValue": "subnet-0fbce1ad6a28346f9,subnet-055374021d15fcb17,subnet-0db3e9627e2570361" },
  { "ParameterKey": "PrivateSubnets", "ParameterValue": "subnet-062684528d74564dd,subnet-0cd75249e988a0132,subnet-0c238f9ecf9492859" },
  { "ParameterKey": "Service", "ParameterValue": "central" },
  { "ParameterKey": "Size", "ParameterValue": "medium" },
  { "ParameterKey": "Stack", "ParameterValue": "alpha" },
  { "ParameterKey": "Version", "ParameterValue": "latest" },
  { "ParameterKey": "VpcId", "ParameterValue": "vpc-31f08854" }
]
