[
	{ "ParameterKey": "Environment", "ParameterValue": "stage" },
	{ "ParameterKey": "Application", "ParameterValue": "analytics" },
	{ "ParameterKey": "Service", "ParameterValue": "etl" },
	{ "ParameterKey": "Index", "ParameterValue": "04" },
	{ "ParameterKey": "Domain", "ParameterValue": "turvo.net" },
	{ "ParameterKey": "VpcId", "ParameterValue": "vpc-31f08854" },
  { "ParameterKey": "SubnetId", "ParameterValue": "subnet-194c057c" },
	{ "ParameterKey": "InstanceType", "ParameterValue": "t3.medium" },
  { "ParameterKey": "VolumeSize", "ParameterValue": "128" },
  { "ParameterKey": "VolumeType", "ParameterValue": "gp2" },
	{ "ParameterKey": "OpsFoundation", "ParameterValue": "ami-0c41a55e794c8b705" },
	{ "ParameterKey": "OpsAutomate", "ParameterValue": "feature/etl/snowflake-3.12.9" },
	{ "ParameterKey": "OpsAlerts", "ParameterValue": "arn:aws:sns:us-west-2:140539094451:OpsAlerts" },
	{ "ParameterKey": "OpsPager", "ParameterValue": "arn:aws:sns:us-west-2:140539094451:OpsGenie" },
	{ "ParameterKey": "OpsEncryptionKey", "ParameterValue": "TurvoPracticeKey" }
]
