[
	{ "ParameterKey": "Environment", "ParameterValue": "stage" },
	{ "ParameterKey": "Application", "ParameterValue": "analytics" },
	{ "ParameterKey": "Service", "ParameterValue": "depot" },
	{ "ParameterKey": "Index", "ParameterValue": "01" },
	{ "ParameterKey": "Domain", "ParameterValue": "turvo.net" },
	{ "ParameterKey": "VpcId", "ParameterValue": "vpc-31f08854" },
  { "ParameterKey": "Subnets", "ParameterValue": "subnet-194c057c,subnet-7c147b0b,subnet-871a9bde" },
	{ "ParameterKey": "ClusterType", "ParameterValue": "single-node" },
	{ "ParameterKey": "ClusterSize", "ParameterValue": "1" },
	{ "ParameterKey": "InstanceType", "ParameterValue": "dc2.large" },
	{ "ParameterKey": "Database", "ParameterValue": "turvo" },
	{ "ParameterKey": "Username", "ParameterValue": "root" },
	{ "ParameterKey": "Password", "ParameterValue": "TurvoPleasel3tm31n" },
	{ "ParameterKey": "OpsAlerts", "ParameterValue": "arn:aws:sns:us-west-2:140539094451:OpsAlerts" },
	{ "ParameterKey": "OpsPager", "ParameterValue": "arn:aws:sns:us-west-2:140539094451:OpsGenie" }
]
