[
  { "ParameterKey": "VpcId", "ParameterValue": "vpc-31f08854" },
  { "ParameterKey": "PublicSubnets", "ParameterValue": "subnet-0fbce1ad6a28346f9,subnet-055374021d15fcb17,subnet-0db3e9627e2570361" },
  { "ParameterKey": "PrivateSubnets", "ParameterValue": "subnet-062684528d74564dd,subnet-0cd75249e988a0132,subnet-0c238f9ecf9492859" },
	{ "ParameterKey": "Domain", "ParameterValue": "turvo.com" },
	{ "ParameterKey": "OpsFoundation", "ParameterValue": "ami-0c41a55e794c8b705" },
	{ "ParameterKey": "OpsAlerts", "ParameterValue": "arn:aws:sns:us-west-2:140539094451:OpsAlerts" },
	{ "ParameterKey": "OpsPager", "ParameterValue": "arn:aws:sns:us-west-2:140539094451:OpsGenie" },
  { "ParameterKey": "VolumeSize", "ParameterValue": "32" },
  { "ParameterKey": "VolumeType", "ParameterValue": "gp2" },
  { "ParameterKey": "Environment", "ParameterValue": "stage" },
  { "ParameterKey": "Application", "ParameterValue": "track" },
	{ "ParameterKey": "Service", "ParameterValue": "central" },
  { "ParameterKey": "Stack", "ParameterValue": "bravo" },
	{ "ParameterKey": "OpsAutomate", "ParameterValue": "master" },
	{ "ParameterKey": "OpsEncryptionKey", "ParameterValue": "TurvoPracticeKey" },
  { "ParameterKey": "InstanceType", "ParameterValue": "t3.small" },
  { "ParameterKey": "MinClusterSize", "ParameterValue": "1" },
  { "ParameterKey": "IdealClusterSize", "ParameterValue": "1" },
  { "ParameterKey": "MaxClusterSize", "ParameterValue": "2" },
  { "ParameterKey": "Version", "ParameterValue": "2019.02.27.3" }
]
