[
	{ "ParameterKey": "Environment", "ParameterValue": "stage" },
	{ "ParameterKey": "Application", "ParameterValue": "activity" },
	{ "ParameterKey": "Service", "ParameterValue": "mongo" },
	{ "ParameterKey": "Index", "ParameterValue": "03" },
	{ "ParameterKey": "Domain", "ParameterValue": "turvo.net" },
	{ "ParameterKey": "VpcId", "ParameterValue": "vpc-31f08854" },
  { "ParameterKey": "SubnetId", "ParameterValue": "subnet-871a9bde" },
	{ "ParameterKey": "InstanceType", "ParameterValue": "m5.large" },
  { "ParameterKey": "VolumeSize", "ParameterValue": "1024" },
  { "ParameterKey": "VolumeType", "ParameterValue": "gp2" },
	{ "ParameterKey": "OpsFoundation", "ParameterValue": "ami-0c41a55e794c8b705" },
	{ "ParameterKey": "OpsAutomate", "ParameterValue": "master" },
	{ "ParameterKey": "OpsAlerts", "ParameterValue": "arn:aws:sns:us-west-2:140539094451:OpsAlerts" },
	{ "ParameterKey": "OpsPager", "ParameterValue": "arn:aws:sns:us-west-2:140539094451:OpsGenie" },
	{ "ParameterKey": "OpsEncryptionKey", "ParameterValue": "TurvoPracticeKey" }
]
