[
  {"ParameterKey": "Environment","ParameterValue": "stage"},
  {"ParameterKey": "Name","ParameterValue": "sql"},
  {"ParameterKey": "Index","ParameterValue": "02"},
  {"ParameterKey": "VpcId","ParameterValue": "vpc-31f08854"},
  {"ParameterKey": "InstanceType","ParameterValue": "db.m5.xlarge"},
  {"ParameterKey": "SubnetGroup","ParameterValue": "subnet-062684528d74564dd,subnet-0cd75249e988a0132,subnet-0c238f9ecf9492859"},
  {"ParameterKey": "Domain","ParameterValue": "turvo.net"},
  {"ParameterKey": "OpsAlerts","ParameterValue": "arn:aws:sns:us-west-2:140539094451:OpsAlerts"},
  {"ParameterKey": "OpsPager","ParameterValue": "arn:aws:sns:us-west-2:140539094451:OpsGenie"},
  {"ParameterKey": "MonitoringRoleArn","ParameterValue": "arn:aws:iam::140539094451:role/rds-monitoring-role"},
  {"ParameterKey": "MasterARN","ParameterValue": "arn:aws:rds:us-west-2:140539094451:db:stage-sql-01"},
  {"ParameterKey": "EnableHA","ParameterValue": "no"},
  {"ParameterKey": "MaximumStorage", "ParameterValue": "1000"},
  {"ParameterKey": "BackupWindow","ParameterValue": "00:30-01:30"},
  {"ParameterKey": "DaysToKeepBackups","ParameterValue": "7"}
]
