[
  {"ParameterKey": "Environment","ParameterValue": "stage"},
  {"ParameterKey": "Name","ParameterValue": "sqlencryption"},
  {"ParameterKey": "Index","ParameterValue": "02"},
  {"ParameterKey": "VpcId","ParameterValue": "vpc-31f08854"},
  {"ParameterKey": "SubnetGroup","ParameterValue": "subnet-062684528d74564dd,subnet-0cd75249e988a0132,subnet-0c238f9ecf9492859"},
  {"ParameterKey": "OpsAlerts","ParameterValue": "arn:aws:sns:us-west-2:140539094451:OpsAlerts"},
  {"ParameterKey": "OpsPager","ParameterValue": "arn:aws:sns:us-west-2:140539094451:OpsGenie"},
  {"ParameterKey": "Version","ParameterValue": "5.7.28"},
  {"ParameterKey": "EnableHA","ParameterValue": "yes"},
  {"ParameterKey": "InstanceType","ParameterValue": "db.m5.xlarge"},
  {"ParameterKey": "SnapshotId","ParameterValue": "stage-sql-02-rr-en-snapshot-29-09"},
  {"ParameterKey": "ReplicasCount","ParameterValue": "01"},
  {"ParameterKey": "DaysToKeepBackups","ParameterValue": "1"},
  {"ParameterKey": "BackupWindow","ParameterValue": "00:30-01:30"},
  {"ParameterKey": "VolumeSize","ParameterValue": "350"}
]
