[
  { "ParameterKey": "Environment", "ParameterValue": "stage" },
  { "ParameterKey": "Application", "ParameterValue": "track" },
	{ "ParameterKey": "Service", "ParameterValue": "queue" },
  { "ParameterKey": "Index", "ParameterValue": "04" },
  { "ParameterKey": "VpcId", "ParameterValue": "vpc-31f08854" },
  { "ParameterKey": "Subnets", "ParameterValue": "subnet-062684528d74564dd,subnet-0cd75249e988a0132,subnet-0c238f9ecf9492859" },
	{ "ParameterKey": "Domain", "ParameterValue": "turvo.net" },
	{ "ParameterKey": "OpsFoundation", "ParameterValue": "ami-0c41a55e794c8b705" },
	{ "ParameterKey": "OpsAlerts", "ParameterValue": "arn:aws:sns:us-west-2:140539094451:OpsAlerts" },
	{ "ParameterKey": "OpsPager", "ParameterValue": "arn:aws:sns:us-west-2:140539094451:OpsGenie" },
	{ "ParameterKey": "OpsAutomate", "ParameterValue": "master" },
	{ "ParameterKey": "OpsEncryptionKey", "ParameterValue": "TurvoPracticeKey" },
  { "ParameterKey": "InstanceType", "ParameterValue": "m5.large" },
  { "ParameterKey": "MinClusterSize", "ParameterValue": "2" },
  { "ParameterKey": "IdealClusterSize", "ParameterValue": "2" },
  { "ParameterKey": "MaxClusterSize", "ParameterValue": "2" },
  { "ParameterKey": "VolumeSize", "ParameterValue": "128" },
  { "ParameterKey": "VolumeType", "ParameterValue": "gp2" },
  { "ParameterKey": "Version", "ParameterValue": "0.0.1" }
]
