[
	{ "ParameterKey": "VpcId", "ParameterValue": "vpc-31f08854" },
	{ "ParameterKey": "InternetGateway", "ParameterValue": "igw-d760e3b2" },
	{ "ParameterKey": "AvailabilityZone", "ParameterValue": "us-west-2b" },
	{ "ParameterKey": "PublicCidrBlock", "ParameterValue": "10.0.2.0/24" },
	{ "ParameterKey": "PrivateCidrBlock", "ParameterValue": "10.0.20.0/24" }
]
