[
	{ "ParameterKey": "PeeringId", "ParameterValue": "pcx-bc5a78d5" },
	{ "ParameterKey": "CidrBlock", "ParameterValue": "172.151.0.0/16" },
	{ "ParameterKey": "RouteTableId", "ParameterValue": "rtb-079a36a538c90a759" }
]
