[
	{ "ParameterKey": "PeeringId", "ParameterValue": "pcx-bc5a78d5" },
	{ "ParameterKey": "CidrBlock", "ParameterValue": "172.151.0.0/16" },
	{ "ParameterKey": "RouteTableId", "ParameterValue": "rtb-08a1e76d" }
]
