[
  { "ParameterKey": "Environment", "ParameterValue": "common" },
  { "ParameterKey": "Index", "ParameterValue": "01" },
  { "ParameterKey": "Role", "ParameterValue": "sonar" },
  { "ParameterKey": "VpcId", "ParameterValue": "vpc-31f08854" },
  { "ParameterKey": "SubnetId", "ParameterValue": "subnet-0cd75249e988a0132" },
  { "ParameterKey": "Domain", "ParameterValue": "turvo.net" },
  { "ParameterKey": "InstanceType", "ParameterValue": "t3a.large" },
  { "ParameterKey": "OpsEncryptionKey", "ParameterValue": "us-west-2-commonkey-20210316" },
  { "ParameterKey": "OpsAlerts", "ParameterValue": "arn:aws:sns:us-west-2:140539094451:OpsAlerts" },
  { "ParameterKey": "OpsPager", "ParameterValue": "arn:aws:sns:us-west-2:140539094451:OpsGenie" },
  { "ParameterKey": "OpsFoundation", "ParameterValue": "ami-01cb7059bd66e192c"},
  { "ParameterKey": "OpsConman", "ParameterValue": "master"},
  { "ParameterKey": "VolumeSize", "ParameterValue": "32"},
  { "ParameterKey": "VolumeType", "ParameterValue": "gp3"},
  { "ParameterKey": "RulePriority", "ParameterValue": "01"}
]
