[
  { "ParameterKey": "Role", "ParameterValue": "alert" },
  { "ParameterKey": "VpcId", "ParameterValue": "vpc-31f08854" },
  { "ParameterKey": "Subnets", "ParameterValue": "subnet-871a9bde" },
  { "ParameterKey": "Environment", "ParameterValue": "Common" },
	{ "ParameterKey": "Alerts", "ParameterValue": "arn:aws:sns:us-west-2:140539094451:OpsAlerts" },
	{ "ParameterKey": "Pager", "ParameterValue": "arn:aws:sns:us-west-2:140539094451:OpsGenie" },
  { "ParameterKey": "EncryptionKey", "ParameterValue": "TurvoCommonKey" },
	{ "ParameterKey": "InstanceType", "ParameterValue": "t2.large" },
	{ "ParameterKey": "VolumeSize", "ParameterValue": "32" },
	{ "ParameterKey": "VolumeType", "ParameterValue": "gp2" }
]
