[
  { "ParameterKey": "Environment", "ParameterValue": "Common" },
  { "ParameterKey": "Role", "ParameterValue": "discover" },
  { "ParameterKey": "Domain", "ParameterValue": "turvo.net" },
  { "ParameterKey": "Alerts", "ParameterValue": "arn:aws:sns:us-west-2:140539094451:OpsAlerts" },
  { "ParameterKey": "Pager", "ParameterValue": "arn:aws:sns:us-west-2:140539094451:OpsGenie" },
  { "ParameterKey": "EncryptionKey", "ParameterValue": "TurvoCommonKey" },
  { "ParameterKey": "InstanceType", "ParameterValue": "m5.xlarge" },
  { "ParameterKey": "VolumeSize", "ParameterValue": "1024" },
  { "ParameterKey": "VolumeType", "ParameterValue": "gp2" }
]
